<?xml version="1.0" encoding="UTF-8" standalone="no"?>
<svg
   xmlns:dc="http://purl.org/dc/elements/1.1/"
   xmlns:cc="http://creativecommons.org/ns#"
   xmlns:rdf="http://www.w3.org/1999/02/22-rdf-syntax-ns#"
   xmlns:svg="http://www.w3.org/2000/svg"
   xmlns="http://www.w3.org/2000/svg"
   version="1.1"
   id="svg2"
   viewBox="0 0 457.56631 199.72261"
   height="2.2191401in"
   width="5.0840702in">
  <defs
     id="defs4" />
  <metadata
     id="metadata7">
    <rdf:RDF>
      <cc:Work
         rdf:about="">
        <dc:format>image/svg+xml</dc:format>
        <dc:type
           rdf:resource="http://purl.org/dc/dcmitype/StillImage" />
        <dc:title></dc:title>
      </cc:Work>
    </rdf:RDF>
  </metadata>
  <g
     transform="matrix(1.4881794,0,0,1.4881794,-107.62454,-212.15976)"
     id="g159">
    <g
       transform="matrix(3.5433071,0,0,3.5433071,-15.821816,-255.68312)"
       id="g1054">
      <path
         d="m 42.982499,127.89246 q -0.381,0 -0.578555,-0.0141 -0.183445,-0.0141 -0.338667,-0.0141 -0.423333,0 -0.747889,0.0423 -0.324555,0.0423 -0.550333,0.16933 -0.225778,0.127 -0.338667,0.36689 -0.112889,0.23989 -0.112889,0.635 0,0.57856 0.127,0.86078 0.141111,0.26811 0.381,0.39511 0.254,0.11289 0.606778,0.14111 0.352778,0.0282 0.790222,0.127 0.254,0.0282 0.508,0.0423 0.254,0 0.508,0 h 1.016 q -0.705555,-0.0423 -1.411111,-0.0423 -0.691444,-0.0141 -1.255889,-0.127 -0.550333,-0.11289 -0.903111,-0.39511 -0.338666,-0.28222 -0.338666,-0.86078 0,-0.46566 0.112888,-0.70555 0.127,-0.254 0.324556,-0.36689 0.211667,-0.127 0.493889,-0.14111 0.282222,-0.0282 0.606778,-0.0282 0.395111,0 0.804333,0.0423 -0.324556,0.0988 -0.663222,0.15522 -0.324556,0.0423 -0.606778,0.0988 -0.282222,0.0423 -0.493889,0.127 -0.197556,0.0705 -0.268111,0.21166 v 0.635 l -0.112889,0.0565 q 0.05644,0.35278 0.09878,0.53622 0.05644,0.16933 0.282222,0.26811 0.225778,0.0847 0.719667,0.14111 0.508,0.0565 1.467555,0.18345 h 1.016 q 0.268111,0 0.310445,-0.0141 0.05644,-0.0282 0.07055,-0.0282 l -0.127,-0.762 q -0.02822,-0.28222 -0.07055,-0.508 -0.04233,-0.22577 -0.112889,-0.47977 -0.01411,0.0423 -0.08467,0.0423 0.07056,0.23989 0.112889,0.508 0.05644,0.26811 0.08467,0.508 0.04233,0.23989 0.05644,0.40922 0.02822,0.16934 0.05644,0.19756 l -0.08467,0.0282 q -0.02822,0.0141 -0.08467,0.0141 h -0.08467 q -0.09878,0 -0.225778,-0.0141 -0.127,-0.0282 -0.324556,-0.0282 h -0.465666 q -0.550334,0 -1.016,-0.0565 -0.437445,-0.0564 -0.762,-0.14111 0.324555,0.0706 0.790222,0.11289 0.493889,0.0565 0.917222,0.0565 0.183444,0 0.381,0 0.211667,-0.0141 0.451556,-0.0141 h 0.465666 q -0.04233,-0.0423 -0.09878,-0.0423 h -0.02822 q -0.05644,-0.97367 -0.254,-1.86267 -0.197555,-0.889 -0.635,-1.55222 -0.437444,-0.67733 -1.143,-1.07244 -0.705555,-0.40922 -1.763889,-0.40922 -0.296333,0 -0.592666,0.0423 -0.296334,0.0423 -0.606778,0.11289 0.02822,-0.0282 0.02822,-0.0564 0,-0.0706 -0.05644,-0.127 -0.05645,-0.0705 -0.05645,-0.14111 0,-0.0847 0.169334,-0.15522 0.183444,-0.0847 0.762,-0.15522 -0.02822,-0.0282 -0.04233,-0.0847 0,-0.0564 0,-0.0847 -0.762,0 -1.185333,-0.0282 -0.423333,-0.0423 -0.423333,-0.21166 0,-0.0706 0.169333,-0.19756 0.183444,-0.127 0.508,-0.23989 0.324556,-0.127 0.776111,-0.21167 0.465667,-0.0988 1.030111,-0.0988 1.086556,0 1.862667,0.33866 0.776111,0.32456 1.298222,0.87489 0.536222,0.53622 0.860778,1.22767 0.338666,0.69144 0.536222,1.397 0.211667,0.69144 0.310444,1.35467 0.09878,0.64911 0.183445,1.12888 0,0.0847 0,0.16934 0.01411,0.0847 0.01411,0.19755 0,0.40923 -0.155222,0.71967 -0.141111,0.29633 -0.409223,0.49389 -0.254,0.21167 -0.606777,0.31044 -0.338667,0.11289 -0.733778,0.11289 -0.310444,0 -0.804333,-0.0141 -0.493889,-0.0141 -0.945445,-0.0847 -0.296333,-0.0705 -0.649111,-0.11288 -0.352778,-0.0282 -0.719667,-0.11289 -0.366888,-0.0847 -0.719666,-0.23989 -0.338667,-0.15522 -0.620889,-0.46567 -0.26811,-0.32455 -0.437444,-0.83255 -0.155223,-0.508 -0.155223,-1.28412 0,-0.73377 0.338668,-1.17122 0.338667,-0.45155 0.804332,-0.69144 0.479779,-0.254 0.973667,-0.32456 0.49389,-0.0847 0.804333,-0.0847 0.395111,0 0.522112,0.0564 0.127,0.0564 0.127,0.11289 0,0.0423 -0.01411,0.0705 -0.352778,0 -0.903112,0.0282 -0.550333,0.0282 -1.072443,0.18344 -0.508001,0.15522 -0.87489,0.47978 -0.366889,0.31044 -0.366889,0.889 0.127,-0.52211 0.423333,-0.81845 0.310445,-0.31044 0.705556,-0.45155 0.395111,-0.15522 0.804333,-0.18345 0.423333,-0.0423 0.762,-0.0423 h 0.479779 q -0.05645,0.0564 -0.05645,0.11289 0,0.0564 0.05645,0.0988 h 0.550333 q 0.225778,0.0423 0.324556,0.15522 0.09878,0.0988 0.09878,0.18344 0,0.127 -0.127,0.22578 -0.127001,0.0988 -0.423334,0.19756 z m -2.370666,3.41489 q 0.395111,0.15522 0.804333,0.23989 0.423333,0.0847 0.832555,0.11288 0.409223,0.0423 0.762,0.0423 -0.282222,-0.0282 -0.564444,-0.0988 -0.296333,-0.0706 -0.522111,-0.127 -0.239889,-0.0564 -0.479778,-0.0706 -0.225778,-0.0282 -0.479778,-0.0705 -0.239889,-0.0423 -0.493888,-0.127 -0.254,-0.0988 -0.508,-0.28222 0.268111,0.23989 0.649111,0.381 z m 0.141111,-1.48167 q -0.01411,-0.0141 0.08467,0.0847 0.08467,0.0847 0.225778,0.127 -0.07055,-0.0282 -0.211667,-0.0706 -0.155223,-0.0564 -0.155223,-0.16933 z m 0.352778,0.21167 q -0.01411,0 -0.04233,0 0.01411,0 0.04233,0 z"
         style="font-style:normal;font-weight:normal;font-size:14.11111069px;line-height:1.25;font-family:sans-serif;letter-spacing:0px;word-spacing:0px;fill:#6c6463;fill-opacity:1;stroke:none;stroke-width:0.26458332"
         id="path1079" />
      <path
         d="m 47.766143,130.68646 q 0,-0.0706 0.04233,-0.16934 0.04233,-0.0988 0.04233,-0.21166 0.04233,-0.33867 0.05644,-0.47978 0.01411,-0.15522 0.01411,-0.26811 0,-0.59267 -0.04233,-1.27 -0.02822,-0.69145 -0.07056,-1.32645 0,-0.19755 -0.01411,-0.46566 0,-0.26811 -0.02822,-0.42334 0.04233,-0.49388 0.07055,-0.97366 0.02822,-0.47978 0.02822,-0.97367 v -0.35278 q 0,-0.18344 -0.01411,-0.36689 0.04233,0.0423 0.08467,0.0423 0.05645,0 0.11289,-0.0423 0.07056,-0.0423 0.127,-0.0423 0.09878,0 0.155223,0.21167 0.07056,0.21166 0.07056,0.93133 h 0.127 q 0.07055,-0.79022 0.211667,-1.25589 0.155222,-0.46566 0.310443,-0.46566 0.07056,0 0.225778,0.31044 0.155222,0.29633 0.155222,0.94544 l 0.155223,-0.254 q 0.155222,-0.18344 0.338667,-0.381 0.197555,-0.19755 0.437444,-0.35277 0.239888,-0.15523 0.536222,-0.254 0.296334,-0.11289 0.677334,-0.11289 0.733778,0 1.27,0.33866 0.550333,0.32456 0.917222,0.86078 0.366889,0.52211 0.592667,1.19945 0.239888,0.66322 0.366888,1.35466 0.127,0.67734 0.169334,1.31234 0.04233,0.635 0.04233,1.08655 0,0.40922 -0.05644,0.49389 -0.04233,0.0706 -0.169334,0.0847 -0.02822,-1.08656 -0.141111,-2.21545 -0.112889,-1.12889 -0.536222,-2.18722 0.381,1.11478 0.479778,2.20133 0.112889,1.07245 0.112889,2.159 -0.08467,-0.0423 -0.155223,-0.0423 -0.05644,0 -0.09878,0.0423 0,0.11289 0.01411,0.23989 0.01411,0.11289 0.01411,0.22578 0.01411,0.11289 0.01411,0.21167 -0.08467,0.32455 -0.169333,0.46566 -0.08467,0.14112 -0.155223,0.14112 -0.08467,0 -0.141111,-0.0706 -0.05644,-0.0847 -0.112889,-0.19756 -0.04233,-0.11288 -0.09878,-0.23988 -0.04233,-0.14112 -0.127,-0.26812 0.02822,-0.23988 0.04233,-0.381 0.01411,-0.15522 0.01411,-0.254 0,-0.381 -0.01411,-0.91722 -0.01411,-0.53622 -0.08467,-1.11478 -0.05644,-0.59266 -0.197555,-1.17122 -0.127,-0.59266 -0.366889,-1.04422 -0.225778,-0.46567 -0.578556,-0.74789 -0.352777,-0.29633 -0.846666,-0.29633 -0.338667,0 -0.606778,0.22578 -0.254,0.22577 -0.451556,0.57855 -0.183444,0.35278 -0.324555,0.77611 -0.141111,0.40922 -0.225778,0.79022 0.127,-0.39511 0.254,-0.80433 0.141111,-0.40922 0.324556,-0.74789 0.197555,-0.33866 0.451555,-0.55033 0.254,-0.22578 0.592667,-0.22578 0.437444,0 0.747889,0.23989 0.324555,0.23989 0.536222,0.62089 0.225778,0.381 0.352778,0.87489 0.141111,0.47978 0.211666,0.98778 0.07056,0.49388 0.08467,0.97366 0.02822,0.46567 0.02822,0.80434 0,0.26811 -0.01411,0.53622 0,0.26811 -0.01411,0.55033 -0.127,-0.53622 -0.197556,-1.11478 -0.05644,-0.59266 -0.127,-1.15711 -0.07055,-0.57855 -0.183444,-1.10066 -0.09878,-0.53623 -0.296333,-0.98778 l 0.09878,-0.14111 q -0.141112,-0.32456 -0.324556,-0.49389 -0.169333,-0.18345 -0.338667,-0.26811 -0.169333,-0.0847 -0.310444,-0.0988 -0.141111,-0.0141 -0.183445,-0.0141 -0.352777,0 -0.635,0.254 -0.268111,0.254 -0.479777,0.69144 -0.197556,0.42334 -0.352778,0.98778 -0.155222,0.56444 -0.268111,1.18533 -0.112889,0.62089 -0.197556,1.25589 -0.08467,0.62089 -0.141111,1.17122 h 0.127 q 0.07056,-0.47977 0.141111,-1.05833 0.08467,-0.57855 0.169334,-1.17122 0.09878,-0.60678 0.225777,-1.17122 0.127,-0.56445 0.296334,-1.016 0.183444,-0.45156 0.423333,-0.73378 0.225778,-0.26811 0.550333,-0.31045 -0.310444,0.0706 -0.522111,0.39512 -0.225778,0.33866 -0.395111,0.83255 -0.169333,0.49389 -0.310444,1.08656 -0.127,0.57855 -0.239889,1.11477 l -0.282222,2.06023 q -0.05644,0.19755 -0.08467,0.35277 l -0.05645,0.29634 q -0.02822,0.14111 -0.05644,0.31044 -0.02822,0.15522 -0.07056,0.36689 l -0.04233,0.16933 h -0.08467 l -1.425222,-0.47977 q -0.07055,-0.0141 -0.112889,-0.0423 -0.02822,-0.0282 -0.07055,-0.0705 z m 2.455334,-7.239 q -0.282221,0.23989 -0.451555,0.52211 -0.155223,0.26811 -0.296334,0.55033 v 0.0141 q 0.197556,-0.40922 0.550334,-0.83255 0.338666,-0.39511 0.903111,-0.59267 -0.183444,0.0564 -0.352778,0.11289 -0.197556,0.0706 -0.352778,0.22578 z m 1.693334,-0.46567 q -0.07055,-0.0141 -0.197556,-0.0141 0.451555,0.11289 0.846666,0.254 0.395111,0.127 0.747889,0.52211 -0.239888,-0.32455 -0.634999,-0.508 -0.381,-0.18344 -0.762,-0.254 z m 0.381,1.60867 q -0.112888,-0.0847 -0.268111,-0.127 -0.141111,-0.0564 -0.352778,-0.14111 l -0.01411,-0.0282 q 0.239888,0.0141 0.423333,0.11289 0.183445,0.0847 0.352778,0.31045 z m 1.044223,-0.81845 q 0.197555,0.23989 0.366888,0.55034 0.169334,0.31044 0.296334,0.55033 -0.141111,-0.32456 -0.268111,-0.59267 -0.127,-0.26811 -0.395111,-0.508 z"
         style="font-style:normal;font-weight:normal;font-size:14.11111069px;line-height:1.25;font-family:sans-serif;letter-spacing:0px;word-spacing:0px;fill:#6c6463;fill-opacity:1;stroke:none;stroke-width:0.26458332"
         id="path1081" />
      <path
         d="m 61.230941,132.81441 q 0.869243,0.27658 1.777999,0.27658 1.02729,0 1.91629,-0.31609 0.888999,-0.31609 1.619956,-0.86924 0.730956,-0.55316 1.28411,-1.28411 0.395111,-0.51365 0.691445,-1.10631 -0.256822,0.55315 -0.592668,1.08655 -0.474132,0.75071 -1.185333,1.32362 -0.691445,0.57291 -1.6002,0.90876 -0.908756,0.3556 -2.054578,0.3556 H 62.83114 q -1.639711,0 -2.8448,-0.73096 -1.205089,-0.73095 -1.995311,-1.85702 -0.790223,-1.14582 -1.185334,-2.54847 -0.375355,-1.40264 -0.375355,-2.76577 0,-0.57291 0.05927,-1.20509 0.05927,-0.65194 0.256823,-1.30387 0.197555,-0.65193 0.553155,-1.26435 0.375356,-0.63218 1.007533,-1.14583 0.513645,-0.41486 1.106312,-0.69144 0.612422,-0.29633 1.205089,-0.33585 -0.05927,0.0395 -0.05927,0.079 0,0.079 0.07902,0.1778 0.09878,0.079 0.09878,0.1778 v 0.0395 q 0,0.079 -0.09878,0.11853 -0.07902,0.0395 -0.276578,0.11853 -0.197555,0.0593 -0.513644,0.19756 -0.316089,0.13829 -0.750711,0.41487 0.118533,0.11853 0.118533,0.1778 0.375356,-0.19756 0.691444,-0.27658 0.316089,-0.079 0.592667,-0.079 0.572911,0 0.829734,0.19755 0.256822,0.19756 0.256822,0.29634 0,0.15804 -0.256822,0.25682 -0.237067,0.0988 -0.572912,0.25682 -0.316088,0.13829 -0.671689,0.39511 -0.3556,0.23707 -0.553155,0.7112 -0.316089,0.47413 -0.493889,1.18533 -0.158044,0.7112 -0.158044,1.44216 0,1.2446 0.296333,2.27189 0.296333,1.02729 0.829733,1.778 0.553156,0.75071 1.323623,1.16558 0.790222,0.41486 1.778,0.41486 0.948266,0 1.698977,-0.47413 0.770467,-0.47413 1.303867,-1.28411 0.5334,-0.82973 0.809978,-1.89653 0.276578,-1.08656 0.276578,-2.3114 0,-0.59267 -0.07902,-1.16558 -0.05927,-0.59267 -0.276577,-1.12607 -0.197556,-0.5334 -0.572911,-1.00753 -0.3556,-0.47414 -0.948267,-0.86925 -0.750711,-0.39511 -1.224845,-0.55315 -0.474133,-0.1778 -0.474133,-0.33585 0,-0.0593 0.07902,-0.13829 0.987778,0.21732 1.778,0.7112 0.730956,0.45438 1.224845,1.18534 -0.5334,-0.80998 -1.205089,-1.2446 -0.730956,-0.49389 -1.738489,-0.77047 0.09878,-0.0988 0.09878,-0.1778 0,-0.079 -0.296334,-0.13829 -0.276577,-0.0593 -0.612422,-0.13829 -0.335843,-0.079 -0.632177,-0.19755 -0.276578,-0.11854 -0.276578,-0.29634 0,-0.21731 0.3556,-0.31608 0.3556,-0.0988 0.869244,-0.23707 0.138289,0 0.256822,0.0395 0.138289,0.0395 0.237067,0.079 0.968022,0.1778 1.837267,0.63218 0.889,0.45438 1.580444,1.16558 0.7112,0.7112 1.185334,1.69898 0.474133,0.96802 0.612422,2.19286 -0.09878,-1.16558 -0.5334,-2.11384 -0.414867,-0.96802 -1.106311,-1.71874 -0.671689,-0.75071 -1.580445,-1.26435 -0.908755,-0.51365 -1.936044,-0.79022 0.908755,0 1.797755,0.37535 0.908756,0.3556 1.659467,1.0668 0.750711,0.69145 1.303867,1.71874 0.553155,1.02728 0.790222,2.35091 -0.03951,0 -0.118533,0.0395 -0.07902,0.0198 -0.118534,0.0198 0.1778,1.00754 0.1778,1.9558 0,1.38289 -0.434622,2.70651 -0.414867,1.32363 -1.224845,2.37067 -0.790222,1.02729 -1.9558,1.65947 -1.165577,0.65193 -2.667,0.65193 -0.889,0 -1.738489,-0.25682 -0.849488,-0.25682 -1.580444,-0.69145 0.03951,0.0395 0.03951,0.079 0,0.0395 -0.09878,0.0395 0.730956,0.47413 1.580445,0.73095 z m 7.783688,-7.07249 q -0.09878,0.77047 -0.296333,1.6002 -0.1778,0.80998 -0.513645,1.6002 -0.316089,0.79023 -0.809978,1.48167 -0.493888,0.67169 -1.165577,1.16558 0.671689,-0.47413 1.185333,-1.12607 0.513644,-0.67169 0.84949,-1.46191 0.355599,-0.79022 0.5334,-1.65947 0.197554,-0.889 0.237066,-1.75824 -0.01976,0.0593 -0.01976,0.15804 z m -1.580444,1.14583 q -0.158045,0.75071 -0.474132,1.46191 -0.31609,0.69144 -0.809978,1.2446 0.513644,-0.5334 0.829734,-1.22485 0.316087,-0.69144 0.454376,-1.48166 z m 2.034823,-1.73849 q 0,0.33584 -0.03951,0.69144 -0.01976,0.33585 -0.05927,0.69145 0,-0.33585 0.03951,-0.75071 0.03951,-0.43463 0.03951,-0.94827 v -0.3556 q 0.01976,0.15804 0.01976,0.33584 z m -2.034823,1.73849 q 0.09878,-0.43463 0.138289,-0.86925 0.05927,-0.45438 0.05927,-0.90875 0,-0.49389 -0.05927,-1.00754 0.01976,0.21731 0.01976,0.41487 0.01976,0.19756 0.01976,0.41487 0,1.00753 -0.1778,1.9558 z m 1.936045,-0.23707 -0.1778,0.96802 q -0.09878,0.3556 -0.197557,0.7112 -0.09878,0.33585 -0.237066,0.67169 0.217311,-0.61242 0.3556,-1.22484 0.158044,-0.61243 0.256822,-1.20509 z m -9.699979,5.47229 q 0,-0.0198 -0.01976,-0.0395 0,0.0197 0.01976,0.0395 z m 9.087556,-3.12138 q -0.03951,0.079 -0.05927,0.13829 0.01976,-0.0593 0.05927,-0.13829 z m -0.21731,0.47413 q 0.03951,-0.0593 0.05927,-0.11853 -0.01975,0.0593 -0.05927,0.11853 z m -1.718734,-7.72442 q -0.01976,-0.0395 -0.05927,-0.079 0.01976,0.0395 0.05927,0.079 z m 1.876778,7.38858 q -0.03951,0.0988 -0.07902,0.19756 0.03951,-0.0988 0.07902,-0.19756 z"
         style="font-style:normal;font-variant:normal;font-weight:normal;font-stretch:normal;font-size:19.75555611px;line-height:1.25;font-family:'Finger Paint';-inkscape-font-specification:'Finger Paint';letter-spacing:0px;word-spacing:0px;fill:#6c6463;fill-opacity:1;stroke:none;stroke-width:0.26458332"
         id="path1083" />
      <path
         d="m 76.214112,124.53401 q -0.126999,0 -0.352777,0.0423 -0.211667,0.0423 -0.437445,0.0988 -0.211664,0.0564 -0.395111,0.11289 -0.169331,0.0564 -0.211667,0.0847 0.366889,-0.0564 0.677334,-0.127 0.310444,-0.0847 0.677334,-0.0847 -0.07056,0.127 -0.183443,0.19756 -0.112889,0.0705 -0.254001,0.11289 -0.126999,0.0282 -0.282224,0.0564 -0.155221,0.0141 -0.324555,0.0564 l -0.09878,-0.127 q -0.268111,0.0988 -0.409222,0.127 -0.141111,0.0141 -0.296333,0.0141 -0.169334,0 -0.352778,0 -0.169334,-0.0141 -0.381,-0.0141 0,0.0705 -0.01411,0.11289 0.324555,0 0.550333,0 0.225778,-0.0141 0.550333,-0.0564 -0.310444,0.0564 -0.550333,0.0847 -0.225778,0.0282 -0.550333,0.0282 -0.05645,0.32456 -0.09878,0.635 -0.04233,0.31044 -0.04233,0.60678 0,0.16933 0.01411,0.39511 0.01411,0.22578 0.02822,0.46567 0.02822,0.22577 0.04233,0.43744 0.01411,0.19756 0.01411,0.29633 v 0.84667 q 0.07056,0.28222 0.409223,0.42333 0.338666,0.14111 0.973666,0.14111 h 0.451556 q 0.239889,0 0.324555,0.0565 0.09878,0.0423 0.09878,0.127 0,0.0705 -0.112889,0.0847 -0.112889,0 -0.225778,0 -0.409222,0 -0.860777,-0.0564 -0.423334,-0.0564 -0.832556,-0.127 0.409222,0.0988 0.860778,0.18345 0.465667,0.0705 0.903111,0.0705 h 0.127 q 0.05644,0 0.127,-0.0141 0,0.0706 0,0.127 0.01411,0.0564 0.04233,0.127 l 0.112889,-0.0282 q 0.04233,-0.0141 0.09878,-0.0141 0.05644,-0.0141 0.08467,-0.0423 0.451555,0.0423 0.451555,0.31045 0,0.15522 -0.08467,0.254 -0.08467,0.0988 -0.211666,0.15522 -0.127,0.0564 -0.282222,0.0847 -0.155223,0.0141 -0.296334,0.0141 -0.493889,0 -0.973666,-0.0564 -0.465667,-0.0705 -0.917223,-0.14111 0.395112,0.14111 1.001889,0.22578 0.606778,0.0847 1.227667,0.0847 -0.155222,0.0988 -0.366889,0.15522 -0.211667,0.0564 -0.437444,0.0564 l -1.016,-0.127 q -0.197556,-0.0282 -0.310445,-0.0564 -0.09878,-0.0282 -0.197555,-0.0564 -0.09878,-0.0423 -0.225778,-0.0847 -0.112889,-0.0423 -0.324556,-0.0988 v -0.15522 q -0.366889,-0.0988 -0.592666,-0.33867 -0.225778,-0.23989 -0.352778,-0.52211 -0.127,-0.28222 -0.169333,-0.56444 -0.04233,-0.29634 -0.04233,-0.52212 0,-0.23988 0,-0.43744 0.01411,-0.21167 0.01411,-0.42333 0,-0.15523 -0.01411,-0.39511 0,-0.23989 -0.01411,-0.508 -0.01411,-0.26812 -0.02822,-0.55034 0,-0.28222 0,-0.53622 0,-0.15522 0,-0.29633 0.01411,-0.14111 0.02822,-0.254 h -0.141111 q -0.01411,0.0988 -0.01411,0.22577 v 0.254 q 0,0.40923 0.01411,0.81845 0.01411,0.39511 0.01411,0.73378 0.01411,0.33866 0.02822,0.59266 0.01411,0.23989 0.01411,0.35278 v 0.56445 0.11288 q -0.04233,-0.381 -0.08467,-1.08655 -0.04233,-0.81845 -0.04233,-1.80622 v -0.254 q 0,-0.15523 0,-0.29634 0.01411,-0.14111 0.04233,-0.21166 l -0.479778,-0.0282 q -0.155222,-0.0988 -0.310444,-0.15522 -0.155223,-0.0564 -0.282223,-0.0564 v -0.28222 q 0,-0.0847 0.01411,-0.14112 0.02822,-0.0705 0.141111,-0.0705 0.02822,0 0.141111,0.0282 v -0.16933 q -0.155222,-0.0847 -0.254,-0.22578 -0.09878,-0.15522 -0.09878,-0.31044 0,-0.36689 0.522111,-0.36689 0.197556,0 0.409222,0.0282 0.211667,0.0282 0.437445,0.0423 0.05644,-0.31044 0.09878,-0.55033 0.04233,-0.254 0.08467,-0.47978 0.04233,-0.23989 0.09878,-0.46567 0.05644,-0.23988 0.141111,-0.49388 0.127,-0.28223 0.197556,-0.60678 0.07055,-0.33867 0.09878,-0.66322 l 0.296334,0.0141 q 0.07055,0 0.112889,0.0423 0.05644,0.0423 0.05644,0.19756 0,0.127 -0.04233,0.33866 l 0.169333,0.0423 q 0.112889,-0.381 0.268111,-0.62089 0.169333,-0.23989 0.324556,-0.23989 0.239889,0 0.296333,0.60678 v 0.254 q 0,0.36688 -0.05644,0.69144 -0.04233,0.31044 -0.112889,0.62089 -0.07056,0.31044 -0.141111,0.635 -0.07056,0.32455 -0.127,0.70555 0.310444,0.0423 0.606777,0.0423 0.141111,0 0.282223,0 0.141111,-0.0141 0.282222,-0.0141 0.141111,0 0.296333,-0.11289 0.155222,-0.11289 0.282222,-0.11289 0.112889,0 0.169334,0.0705 0.05644,0.0706 0.05644,0.15523 -0.254,0.0705 -0.508,0.15522 -0.239889,0.0705 -0.465666,0.14111 0.225779,-0.0282 0.479777,-0.0988 0.254001,-0.0847 0.536222,-0.15522 0,0.0706 0,0.127 0.01411,0.0564 0.04233,0.127 0.02822,0 0.07055,-0.0141 0.08467,-0.0282 0.09878,-0.0282 0.14111,0.0705 0.183443,0.18344 0.04233,0.0988 0.04233,0.22578 0,0.0988 -0.02822,0.18344 -0.02822,0.0706 -0.02822,0.127 z m -3.739444,5.207 q -0.197556,-0.381 -0.211667,-0.74789 -0.01411,-0.36688 -0.04233,-0.69144 l -0.127,-2.14489 -0.04233,0.254 q 0,0.94545 0.05644,1.72156 0.07056,0.762 0.197556,1.18533 0,0.127 -0.01411,0.16933 0,0.0423 0,0.0706 0,0.0282 0.02822,0.0705 0.04233,0.0423 0.155222,0.11289 z m 0.804333,-0.762 q -0.02822,-0.11289 -0.02822,-0.23989 v -0.69144 q -0.01411,0.14111 -0.02822,0.28222 -0.01411,0.127 -0.01411,0.26811 0,0.36689 0.04233,0.56445 0.04233,0.16933 0.169333,0.28222 -0.07055,-0.0847 -0.09878,-0.18344 -0.01411,-0.11289 -0.04233,-0.28223 z m -1.368777,-0.0141 -0.01411,-0.0988 z m 1.538111,0.49389 q -0.01411,-0.0141 -0.02822,-0.0141 0.01411,0 0.02822,0.0141 z"
         style="font-style:normal;font-weight:normal;font-size:14.11111069px;line-height:1.25;font-family:sans-serif;letter-spacing:0px;word-spacing:0px;fill:#6c6463;fill-opacity:1;stroke:none;stroke-width:0.26458332"
         id="path1085" />
      <path
         d="m 82.945101,124.53401 q -0.127,0 -0.352778,0.0423 -0.211667,0.0423 -0.437444,0.0988 -0.211667,0.0564 -0.395111,0.11289 -0.169334,0.0564 -0.211667,0.0847 0.366889,-0.0564 0.677333,-0.127 0.310445,-0.0847 0.677334,-0.0847 -0.07056,0.127 -0.183445,0.19756 -0.112889,0.0705 -0.254001,0.11289 -0.126999,0.0282 -0.282222,0.0564 -0.155221,0.0141 -0.324556,0.0564 l -0.09878,-0.127 q -0.268111,0.0988 -0.409223,0.127 -0.141111,0.0141 -0.296333,0.0141 -0.169333,0 -0.352778,0 -0.169333,-0.0141 -0.381,-0.0141 0,0.0705 -0.01411,0.11289 0.324556,0 0.550334,0 0.225777,-0.0141 0.550333,-0.0564 -0.310445,0.0564 -0.550333,0.0847 -0.225778,0.0282 -0.550334,0.0282 -0.05644,0.32456 -0.09878,0.635 -0.04233,0.31044 -0.04233,0.60678 0,0.16933 0.01411,0.39511 0.01411,0.22578 0.02822,0.46567 0.02822,0.22577 0.04233,0.43744 0.01411,0.19756 0.01411,0.29633 v 0.84667 q 0.07055,0.28222 0.409222,0.42333 0.338667,0.14111 0.973667,0.14111 h 0.451555 q 0.239889,0 0.324556,0.0565 0.09878,0.0423 0.09878,0.127 0,0.0705 -0.112888,0.0847 -0.112889,0 -0.225779,0 -0.409222,0 -0.860777,-0.0564 -0.423333,-0.0564 -0.832555,-0.127 0.409222,0.0988 0.860777,0.18345 0.465666,0.0705 0.903111,0.0705 h 0.126999 q 0.05644,0 0.127,-0.0141 0,0.0706 0,0.127 0.01411,0.0564 0.04233,0.127 l 0.112889,-0.0282 q 0.04233,-0.0141 0.09878,-0.0141 0.05644,-0.0141 0.08467,-0.0423 0.451556,0.0423 0.451556,0.31045 0,0.15522 -0.08467,0.254 -0.08467,0.0988 -0.211667,0.15522 -0.127,0.0564 -0.282222,0.0847 -0.155222,0.0141 -0.296333,0.0141 -0.493889,0 -0.973667,-0.0564 -0.465666,-0.0705 -0.917222,-0.14111 0.395111,0.14111 1.001889,0.22578 0.606778,0.0847 1.227666,0.0847 -0.155222,0.0988 -0.366888,0.15522 -0.211667,0.0564 -0.437445,0.0564 l -1.016,-0.127 q -0.197555,-0.0282 -0.310444,-0.0564 -0.09878,-0.0282 -0.197556,-0.0564 -0.09878,-0.0423 -0.225778,-0.0847 -0.112888,-0.0423 -0.324555,-0.0988 v -0.15522 q -0.366889,-0.0988 -0.592667,-0.33867 -0.225778,-0.23989 -0.352778,-0.52211 -0.127,-0.28222 -0.169333,-0.56444 -0.04233,-0.29634 -0.04233,-0.52212 0,-0.23988 0,-0.43744 0.01411,-0.21167 0.01411,-0.42333 0,-0.15523 -0.01411,-0.39511 0,-0.23989 -0.01411,-0.508 -0.01411,-0.26812 -0.02822,-0.55034 0,-0.28222 0,-0.53622 0,-0.15522 0,-0.29633 0.01411,-0.14111 0.02822,-0.254 h -0.141111 q -0.01411,0.0988 -0.01411,0.22577 v 0.254 q 0,0.40923 0.01411,0.81845 0.01411,0.39511 0.01411,0.73378 0.01411,0.33866 0.02822,0.59266 0.01411,0.23989 0.01411,0.35278 v 0.56445 0.11288 q -0.04233,-0.381 -0.08467,-1.08655 -0.04233,-0.81845 -0.04233,-1.80622 v -0.254 q 0,-0.15523 0,-0.29634 0.01411,-0.14111 0.04233,-0.21166 l -0.479777,-0.0282 q -0.155223,-0.0988 -0.310445,-0.15522 -0.155222,-0.0564 -0.282222,-0.0564 v -0.28222 q 0,-0.0847 0.01411,-0.14112 0.02822,-0.0705 0.141111,-0.0705 0.02822,0 0.141111,0.0282 v -0.16933 q -0.155222,-0.0847 -0.254,-0.22578 -0.09878,-0.15522 -0.09878,-0.31044 0,-0.36689 0.522111,-0.36689 0.197555,0 0.409222,0.0282 0.211667,0.0282 0.437444,0.0423 0.05644,-0.31044 0.09878,-0.55033 0.04233,-0.254 0.08467,-0.47978 0.04233,-0.23989 0.09878,-0.46567 0.05645,-0.23988 0.141112,-0.49388 0.127,-0.28223 0.197555,-0.60678 0.07056,-0.33867 0.09878,-0.66322 l 0.296333,0.0141 q 0.07056,0 0.112889,0.0423 0.05644,0.0423 0.05644,0.19756 0,0.127 -0.04233,0.33866 l 0.169334,0.0423 q 0.112888,-0.381 0.268111,-0.62089 0.169333,-0.23989 0.324555,-0.23989 0.239889,0 0.296334,0.60678 v 0.254 q 0,0.36688 -0.05645,0.69144 -0.04233,0.31044 -0.112889,0.62089 -0.07055,0.31044 -0.141111,0.635 -0.07055,0.32455 -0.127,0.70555 0.310445,0.0423 0.606778,0.0423 0.141111,0 0.282222,0 0.141111,-0.0141 0.282222,-0.0141 0.141111,0 0.296334,-0.11289 0.155222,-0.11289 0.282222,-0.11289 0.112889,0 0.169333,0.0705 0.05645,0.0706 0.05645,0.15523 -0.254,0.0705 -0.508,0.15522 -0.239889,0.0705 -0.465667,0.14111 0.225778,-0.0282 0.479778,-0.0988 0.254,-0.0847 0.536222,-0.15522 0,0.0706 0,0.127 0.01411,0.0564 0.04233,0.127 0.02822,0 0.07056,-0.0141 0.08467,-0.0282 0.09878,-0.0282 0.141111,0.0705 0.183444,0.18344 0.04233,0.0988 0.04233,0.22578 0,0.0988 -0.02822,0.18344 -0.02822,0.0706 -0.02822,0.127 z m -3.739444,5.207 q -0.197557,-0.381 -0.211668,-0.74789 -0.01411,-0.36688 -0.04233,-0.69144 l -0.127,-2.14489 -0.04233,0.254 q 0,0.94545 0.05644,1.72156 0.07055,0.762 0.197555,1.18533 0,0.127 -0.01411,0.16933 0,0.0423 0,0.0706 0,0.0282 0.02822,0.0705 0.04233,0.0423 0.155223,0.11289 z m 0.804333,-0.762 q -0.02822,-0.11289 -0.02822,-0.23989 v -0.69144 q -0.01411,0.14111 -0.02822,0.28222 -0.01411,0.127 -0.01411,0.26811 0,0.36689 0.04233,0.56445 0.04233,0.16933 0.169333,0.28222 -0.07056,-0.0847 -0.09878,-0.18344 -0.01411,-0.11289 -0.04233,-0.28223 z m -1.368779,-0.0141 -0.01411,-0.0988 z m 1.538111,0.49389 q -0.01411,-0.0141 -0.02822,-0.0141 0.01411,0 0.02822,0.0141 z"
         style="font-style:normal;font-weight:normal;font-size:14.11111069px;line-height:1.25;font-family:sans-serif;letter-spacing:0px;word-spacing:0px;fill:#6c6463;fill-opacity:1;stroke:none;stroke-width:0.26458332"
         id="path1087" />
      <path
         d="m 89.492632,131.84357 q -0.536224,0.18344 -0.818444,0.19755 -0.282223,0.0282 -0.493889,0.0423 -0.790222,0 -1.425223,-0.29634 -0.635001,-0.29633 -1.086555,-0.80433 -0.451556,-0.508 -0.705557,-1.18533 -0.239889,-0.69145 -0.239889,-1.46756 0,-0.45155 0.08467,-0.93133 0.08467,-0.49389 0.254001,-0.95956 0.169332,-0.47977 0.437444,-0.889 0.254001,-0.40922 0.606779,-0.73377 -0.366889,0.29633 -0.62089,0.70555 -0.268112,0.40922 -0.451555,0.889 -0.183446,0.46567 -0.268113,0.97367 -0.08467,0.49389 -0.08467,0.95955 0,0.59267 0.183444,1.27 0.197556,0.66323 0.620889,1.24178 0.423333,0.56445 1.086556,0.94545 0.677334,0.381 1.636888,0.381 0.451556,0 0.945446,-0.127 -0.536221,0.35277 -1.199444,0.35277 -0.536222,0 -1.016001,-0.16933 -0.465666,-0.15522 -0.874888,-0.45156 -0.395111,-0.28222 -0.719667,-0.67733 -0.324556,-0.39511 -0.550332,-0.84667 l 0.126999,-0.11288 q -0.23989,-0.47978 -0.352778,-0.95956 -0.09878,-0.47978 -0.09878,-0.97367 0,-0.71966 0.197557,-1.38289 0.211665,-0.66322 0.550332,-1.25588 l 0.338667,-0.46567 q 0.08467,-0.15522 0.23989,-0.31045 0.169332,-0.15522 0.366888,-0.29633 0.197557,-0.15522 0.409223,-0.26811 0.225776,-0.127 0.423333,-0.22578 0.507999,-0.254 1.016001,-0.45155 0.507999,-0.21167 1.185333,-0.31045 l -0.05644,-0.0423 q -1.298222,0.127 -2.201334,0.635 -0.903111,0.49389 -1.467556,1.21355 -0.564443,0.71967 -0.818444,1.58045 -0.254,0.84667 -0.254,1.66511 0,0.43744 0.07055,0.889 0.08467,0.43744 0.23989,0.87489 -0.352778,-0.84667 -0.352778,-1.79211 0,-0.93134 0.310445,-1.84856 0.310444,-0.91722 0.973665,-1.69333 0.846667,-0.77611 1.848557,-1.18533 1.001889,-0.42334 1.933222,-0.42334 0.296333,0 0.606778,0.0988 0.310445,0.0988 0.564444,0.31044 0.254,0.19756 0.409222,0.52212 0.169334,0.32455 0.169334,0.79022 0,0.381 -0.183445,0.93133 -0.183444,0.55033 -0.550333,1.07245 -0.352778,0.508 -0.888999,0.87488 -0.536222,0.35278 -1.241778,0.35278 h -0.465666 q -0.522113,-0.11289 -0.959556,-0.254 -0.423333,-0.15522 -0.804333,-0.23989 -0.05644,0.22578 -0.07056,0.43745 0,0.19755 0,0.39511 0,0.40922 0.08467,0.80433 0.09878,0.381 0.296333,0.70556 0.197556,0.32455 0.493889,0.55033 0.310444,0.21167 0.747889,0.26811 0.268111,0.0565 0.465666,0.0706 0.197555,0 0.324556,0.0141 0.14111,0 0.197556,0.0423 0.07055,0.0282 0.07055,0.127 -0.141111,0.0423 -0.296333,0.0564 -0.141111,0.0141 -0.296334,0.0141 -0.493888,0 -0.888999,-0.15522 -0.395112,-0.16934 -0.677334,-0.381 0.324556,0.32455 0.776111,0.46566 0.451555,0.127 0.888999,0.127 0.23989,0 0.493889,-0.0423 -0.02822,0.0847 -0.02822,0.0988 0,0.0847 0.07056,0.11289 0.05644,-0.0141 0.197555,-0.0706 0.141111,-0.0706 0.282222,-0.127 0.155224,-0.0706 0.296334,-0.11289 0.141111,-0.0564 0.197555,-0.0564 0.07056,0 0.127,0.0282 0.05644,0.0141 0.05644,0.15522 0,0.14111 -0.09878,0.33867 -0.09878,0.19755 -0.296333,0.39511 z m -1.947334,-5.588 0.310446,0.0564 q 0.155221,0.0282 0.282222,0.0282 0.141111,0 0.324555,-0.0847 0.197556,-0.0988 0.381,-0.26811 0.197556,-0.16934 0.338667,-0.42334 0.155222,-0.254 0.225778,-0.57855 l 0.02822,-0.0847 q -0.197555,0 -0.592667,0.0988 -0.395111,0.0988 -0.818444,0.26811 -0.423333,0.15522 -0.790222,0.381 -0.366889,0.21167 -0.508,0.46567 0.211666,0.0423 0.409222,0.0847 0.211667,0.0282 0.409222,0.0565 z m -0.649112,1.04422 q 0.02822,-0.0282 0.02822,-0.0847 0.01411,-0.0564 0.01411,-0.0847 l -0.663223,-0.23989 -0.07055,0.19755 z m -0.395111,3.20322 q -0.09878,-0.11289 -0.197556,-0.22577 -0.08467,-0.0988 -0.141111,-0.19756 0.127,0.23989 0.338667,0.42333 z"
         style="font-style:normal;font-weight:normal;font-size:14.11111069px;line-height:1.25;font-family:sans-serif;letter-spacing:0px;word-spacing:0px;fill:#6c6463;fill-opacity:1;stroke:none;stroke-width:0.26458332"
         id="path1089" />
      <path
         d="m 94.883077,131.74479 q -0.141111,0.0282 -0.310445,0.0282 h -0.409223 q -0.366889,0 -0.52211,0.0847 -0.141111,0.0847 -0.169333,0.0847 l -0.05644,-0.254 v -0.254 l -0.07056,-1.32645 q -0.02822,-0.381 -0.155222,-0.81844 -0.127,-0.43745 -0.197556,-0.889 -0.04233,-0.29634 -0.07055,-0.56445 l -0.05644,-0.55033 q -0.02822,-0.28222 -0.07055,-0.57856 -0.02822,-0.29633 -0.09878,-0.635 0,-0.0847 0,-0.16933 0.01411,-0.0847 0.01411,-0.16933 0,-0.43745 -0.07056,-0.86078 -0.07055,-0.42333 -0.197555,-0.83256 0.09878,-0.0423 0.183444,-0.0705 0.08467,-0.0423 0.155223,-0.0423 0.07055,0 0.155222,0.16933 0.08467,0.15522 0.183444,0.66322 0.02822,0 0.08467,-0.0141 0.05644,-0.0282 0.08467,-0.0282 -0.01411,-0.23989 -0.07056,-0.508 -0.05644,-0.28222 -0.112889,-0.53622 -0.05644,-0.254 -0.112889,-0.45156 -0.04233,-0.21167 -0.04233,-0.33867 0,-0.0282 0,-0.0705 0.01411,-0.0423 0.07055,-0.0423 0.07056,0 0.183445,0.15523 0.112889,0.15522 0.239889,0.39511 0.127,0.23989 0.239889,0.52211 0.127,0.26811 0.225777,0.508 0.381,-0.71967 0.860778,-1.08656 0.493889,-0.381 1.284111,-0.381 0.578556,0 0.945445,0.14111 0.366893,0.127 0.564443,0.29634 0.21167,0.15522 0.28222,0.29633 l 0.0847,0.14111 q 0,0.0847 -0.0847,0.11289 -0.36689,-0.35278 -0.832552,-0.53622 -0.465667,-0.18345 -0.959556,-0.18345 -0.479778,0 -0.719666,0.127 -0.225779,0.11289 -0.479778,0.28223 0.268111,-0.16934 0.493889,-0.26811 0.239889,-0.0988 0.691444,-0.0988 0.493889,0 0.945445,0.19755 0.451554,0.18345 0.776114,0.47978 -0.0706,0.0282 -0.127,0.0706 -0.0423,0.0282 -0.0423,0.0988 0.0706,0 0.15522,0.0988 0.0847,0.0847 0.15522,0.21167 0.0705,0.127 0.11289,0.26811 0.0564,0.127 0.0564,0.21167 0,0.23989 -0.18344,0.23989 -0.14112,0 -0.33867,-0.0988 -0.0423,-0.0141 -0.18344,-0.15522 -0.127,-0.14112 -0.32456,-0.28223 -0.197556,-0.15522 -0.451556,-0.28222 -0.254,-0.127 -0.564444,-0.127 -0.254,0 -0.451556,0.11289 -0.183444,0.0988 -0.338666,0.28222 -0.155222,0.16934 -0.282222,0.39511 l -0.183445,0.33867 q 0.211667,-0.381 0.465667,-0.69144 0.282222,-0.36689 0.705555,-0.36689 0.366889,0 0.677334,0.16933 0.310444,0.15522 0.508,0.39511 -0.239889,-0.0988 -0.564445,-0.19755 -0.324556,-0.0988 -0.62089,-0.0988 -0.155221,0 -0.268111,0.0705 -0.112889,0.0706 -0.197555,0.18345 -0.07056,0.0988 -0.14111,0.22578 -0.05644,0.127 -0.127,0.23988 l -0.183445,0.0282 q -0.23989,0.40922 -0.395111,0.95955 -0.141111,0.53622 -0.141111,1.12889 0,0.35278 0.02822,0.635 0.04233,0.28222 0.112889,0.57856 l 0.169332,0.43744 -0.02822,-0.40922 q -0.02822,-0.47978 -0.05644,-0.84667 -0.02822,-0.381 -0.02822,-0.83255 0.02822,-0.40923 0.112889,-0.77611 0.07056,-0.31045 0.211667,-0.57856 -0.169332,0.33867 -0.225778,0.77611 -0.07055,0.47978 -0.07055,1.016 0,0.42333 0.04233,0.80433 0.04233,0.381 0.09878,0.762 0.07055,0.381 0.141111,0.79023 0.07055,0.39511 0.112888,0.87489 l 0.04233,0.26811 0.08467,0.80433 z m 0.169331,-6.30767 -0.04233,0.0706 z"
         style="font-style:normal;font-weight:normal;font-size:14.11111069px;line-height:1.25;font-family:sans-serif;letter-spacing:0px;word-spacing:0px;fill:#6c6463;fill-opacity:1;stroke:none;stroke-width:0.26458332"
         id="path1091" />
      <path
         id="path245"
         d="m 56.666761,123.52013 c -2.90415,-1.68555 -1.408586,-3.17946 -0.283976,-2.50564 0.267272,-0.13364 1.186009,0.30066 1.186009,0.30066 -0.781637,0.89913 -0.576737,1.52331 -0.902033,2.20498 z"
         style="fill:#6c6463;fill-opacity:1;stroke:none;stroke-width:0.26458332px;stroke-linecap:butt;stroke-linejoin:miter;stroke-opacity:1" />
      <path
         id="path245-6"
         d="m 68.727376,122.86009 c 2.90415,-1.68555 1.408587,-3.17946 0.283976,-2.50564 -0.267273,-0.13364 -1.186009,0.30066 -1.186009,0.30066 0.781637,0.89913 0.576736,1.52331 0.902033,2.20498 z"
         style="fill:#6c6463;fill-opacity:1;stroke:none;stroke-width:0.26458332px;stroke-linecap:butt;stroke-linejoin:miter;stroke-opacity:1" />
      <path
         id="path36-6"
         d="m 63.429012,129.04793 c -0.224768,-0.17184 -0.391901,-0.38407 -0.473033,-0.61913 -0.04932,-0.14218 0.02611,-0.29772 0.168717,-0.34753 0.142585,-0.0498 0.298115,0.0256 0.34751,0.16875 0.117881,0.34009 0.630663,0.6393 1.167329,0.68092 0.217842,0.0169 0.749901,0.01 0.978505,-0.4215 0.07082,-0.13313 0.236017,-0.18406 0.369131,-0.11322 0.133229,0.0718 0.184068,0.23601 0.113229,0.36913 -0.263876,0.49716 -0.826353,0.7627 -1.503866,0.70956 -0.446558,-0.0337 -0.860466,-0.19218 -1.167544,-0.42694 z"
         style="fill:#6c6463;fill-opacity:1;stroke-width:0.66415107" />
      <path
         id="path38-0"
         d="m 60.693714,129.64703 c -0.05434,-0.0415 -0.105576,-0.0883 -0.153055,-0.13878 -0.102889,-0.11038 -0.09794,-0.28304 0.01246,-0.38591 0.110421,-0.10286 0.283699,-0.0966 0.385904,0.0125 0.332114,0.35511 0.849025,0.22355 1.055202,0.1496 0.507376,-0.18142 0.924265,-0.60425 0.947897,-0.96322 0.01029,-0.15014 0.140049,-0.26411 0.291128,-0.25396 0.150564,0.01 0.264613,0.1405 0.253979,0.2911 -0.04008,0.58716 -0.577948,1.17917 -1.309222,1.44022 -0.561223,0.20046 -1.100656,0.14168 -1.484239,-0.15157 z"
         style="fill:#6c6463;fill-opacity:1;stroke-width:0.66415107" />
      <path
         id="path30-9"
         d="m 64.857431,126.60494 c 0.119656,1.01771 -0.609241,1.94084 -1.626956,2.0605 -1.017714,0.11965 -1.940844,-0.60924 -2.060499,-1.62696 -0.119653,-1.01771 0.717067,-1.01862 1.735445,-1.13775 1.018368,-0.11914 1.832353,-0.3135 1.95201,0.70421 z"
         style="fill:#6c6463;fill-opacity:1;stroke-width:0.83478004" />
      <circle
         transform="rotate(38.29437)"
         id="circle32-1"
         r="0.92827541"
         cy="61.797394"
         cx="125.4222"
         style="fill:#6c6463;fill-opacity:1;stroke-width:0.83478004" />
      <circle
         transform="rotate(38.29437)"
         id="circle34-2"
         r="0.92827541"
         cy="57.859737"
         cx="129.35985"
         style="fill:#6c6463;fill-opacity:1;stroke-width:0.83478004" />
      <g
         transform="translate(-0.523185)"
         style="fill:#caa2dd;fill-opacity:1"
         id="g1116">
        <path
           style="fill:#caa2dd;fill-opacity:1;stroke-width:0.83478004"
           id="path42-7"
           d="m 56.241193,129.34952 c -0.157737,-0.10355 -0.111203,-0.40506 -0.02817,-0.57429 1.440438,-1.27602 3.187583,-1.62171 4.672812,-0.92443 0.202036,0.0957 0.28988,0.33739 0.19484,0.53993 -0.09557,0.20321 -0.33672,0.29041 -0.539929,0.19484 -1.182635,-0.55515 -2.599454,-0.25603 -3.790209,0.79807 -0.21266,0.12719 -0.404767,0.0345 -0.509343,-0.0341 z" />
        <path
           style="fill:#caa2dd;fill-opacity:1;stroke-width:0.83478004"
           id="path44-0"
           d="m 57.509416,130.66673 c -0.165759,-0.13088 -0.204439,-0.36881 -0.08379,-0.54586 0.505913,-0.74713 1.61525,-1.38157 2.595178,-1.15028 0.218325,0.0522 0.353896,0.26979 0.301663,0.48816 -0.05166,0.21765 -0.269786,0.35389 -0.488157,0.30166 -0.601527,-0.14206 -1.398196,0.31595 -1.73711,0.81523 -0.12552,0.18595 -0.377761,0.2346 -0.563173,0.10841 -0.0095,-0.005 -0.01664,-0.011 -0.02456,-0.0173 z m 8.831225,-2.82194 c -0.02427,-0.0192 -0.04633,-0.041 -0.06608,-0.0658 -0.140095,-0.1755 -0.110698,-0.43096 0.0643,-0.5704 1.283658,-1.02223 3.062817,-1.09055 4.759799,-0.18458 0.197287,0.10576 0.271991,0.35196 0.16621,0.54924 -0.105792,0.19727 -0.35132,0.2725 -0.549246,0.16621 -1.402764,-0.74918 -2.849674,-0.711 -3.871955,0.10279 -0.149154,0.12154 -0.358306,0.117 -0.503088,0.003 z" />
        <path
           style="fill:#caa2dd;fill-opacity:1;stroke-width:0.83478004"
           id="path46-9"
           d="m 67.372898,128.77899 c -0.04522,-0.0357 -0.08325,-0.0818 -0.110515,-0.13619 -0.101404,-0.20027 -0.01953,-0.44407 0.180214,-0.54481 0.89956,-0.45227 2.118076,-0.0975 2.791203,0.51699 0.165813,0.15102 0.17639,0.40838 0.02517,0.57296 -0.150497,0.16514 -0.404593,0.17832 -0.572963,0.0252 -0.441647,-0.39977 -1.325988,-0.66725 -1.878822,-0.39008 -0.14594,0.073 -0.314396,0.0506 -0.434297,-0.044 z" />
      </g>
      <circle
         transform="rotate(38.29437)"
         id="circle32-1-2"
         r="0.20915334"
         cy="61.517029"
         cx="125.70321"
         style="fill:#ffffff;fill-opacity:1;stroke-width:0.18808754" />
      <circle
         transform="rotate(38.29437)"
         id="circle32-1-2-6"
         r="0.20915334"
         cy="57.624146"
         cx="129.59349"
         style="fill:#ffffff;fill-opacity:1;stroke-width:0.18808755" />
    </g>
    <g
       id="g890"
       transform="matrix(3.5433071,0,0,3.5433071,-15.821816,-258.51106)">
      <path
         d="m 57.68626,143.1783 q 0,1.07244 -0.804333,1.67922 -0.804333,0.60678 -2.370666,0.60678 -0.592667,0 -1.100667,-0.0847 -0.508,-0.0847 -0.874889,-0.254 -0.352778,-0.18344 -0.564444,-0.45155 -0.197556,-0.26811 -0.197556,-0.635 0,-0.33867 0.141111,-0.56445 0.141111,-0.23989 0.338667,-0.39511 0.409222,0.22578 0.931333,0.40922 0.536222,0.16934 1.227667,0.16934 0.437444,0 0.663222,-0.127 0.239889,-0.127 0.239889,-0.33867 0,-0.19755 -0.169333,-0.31044 -0.169334,-0.11289 -0.564445,-0.18345 l -0.423333,-0.0847 q -1.227667,-0.23989 -1.834445,-0.74789 -0.592666,-0.52211 -0.592666,-1.48167 0,-0.52211 0.225778,-0.94544 0.225777,-0.42334 0.635,-0.70556 0.409222,-0.28222 0.973666,-0.43744 0.578556,-0.15523 1.27,-0.15523 0.522111,0 0.973667,0.0847 0.465666,0.0706 0.804333,0.22578 0.338667,0.15522 0.536222,0.40922 0.197556,0.23989 0.197556,0.57856 0,0.32455 -0.127,0.56444 -0.112889,0.22578 -0.296334,0.381 -0.112888,-0.0706 -0.338666,-0.14111 -0.225778,-0.0847 -0.493889,-0.14111 -0.268111,-0.0706 -0.550333,-0.11289 -0.268111,-0.0423 -0.493889,-0.0423 -0.465667,0 -0.719667,0.11288 -0.254,0.0988 -0.254,0.32456 0,0.15522 0.141111,0.254 0.141111,0.0988 0.536222,0.18344 l 0.437445,0.0988 q 1.354667,0.31045 1.919111,0.86078 0.578555,0.53622 0.578555,1.397 z"
         style="font-style:normal;font-variant:normal;font-weight:normal;font-stretch:normal;font-size:14.11111069px;line-height:1.25;font-family:Baloo;-inkscape-font-specification:Baloo;letter-spacing:0px;word-spacing:0px;fill:#6c6463;fill-opacity:1;stroke:none;stroke-width:0.26458332"
         id="path869" />
      <path
         d="m 61.242242,142.86786 q 0,0.36688 0.225778,0.52211 0.239888,0.15522 0.663222,0.15522 0.211666,0 0.437444,-0.0282 0.225778,-0.0423 0.395111,-0.0988 0.127,0.15522 0.211667,0.35278 0.09878,0.18344 0.09878,0.45155 0,0.53622 -0.409222,0.87489 -0.395112,0.33867 -1.411111,0.33867 -1.241778,0 -1.919112,-0.56445 -0.663222,-0.56444 -0.663222,-1.83444 v -6.03956 q 0.155222,-0.0423 0.437445,-0.0847 0.296333,-0.0565 0.620889,-0.0565 0.620888,0 0.959555,0.22578 0.352778,0.21167 0.352778,0.91722 v 0.90311 h 1.848555 q 0.08467,0.15523 0.155223,0.39511 0.08467,0.22578 0.08467,0.508 0,0.49389 -0.225778,0.71967 -0.211666,0.21167 -0.578555,0.21167 h -1.284111 z"
         style="font-style:normal;font-variant:normal;font-weight:normal;font-stretch:normal;font-size:14.11111069px;line-height:1.25;font-family:Baloo;-inkscape-font-specification:Baloo;letter-spacing:0px;word-spacing:0px;fill:#6c6463;fill-opacity:1;stroke:none;stroke-width:0.26458332"
         id="path871" />
      <path
         d="m 71.501007,141.79541 q 0,0.87489 -0.268112,1.56633 -0.268111,0.67734 -0.762,1.143 -0.479777,0.46567 -1.157111,0.70556 -0.677333,0.23989 -1.509888,0.23989 -0.832556,0 -1.509889,-0.254 -0.677334,-0.254 -1.171222,-0.71967 -0.479778,-0.47978 -0.747889,-1.15711 -0.268111,-0.67733 -0.268111,-1.524 0,-0.83255 0.268111,-1.50989 0.268111,-0.67733 0.747889,-1.143 0.493888,-0.47978 1.171222,-0.73378 0.677333,-0.254 1.509889,-0.254 0.832555,0 1.509888,0.26812 0.677334,0.254 1.157111,0.73377 0.493889,0.46567 0.762,1.143 0.268112,0.67734 0.268112,1.49578 z m -4.938889,0 q 0,0.86078 0.324555,1.32645 0.338667,0.45155 0.931334,0.45155 0.592666,0 0.903111,-0.46567 0.324555,-0.46566 0.324555,-1.31233 0,-0.84667 -0.324555,-1.29822 -0.324556,-0.46567 -0.917222,-0.46567 -0.592667,0 -0.917223,0.46567 -0.324555,0.45155 -0.324555,1.29822 z"
         style="font-style:normal;font-variant:normal;font-weight:normal;font-stretch:normal;font-size:14.11111069px;line-height:1.25;font-family:Baloo;-inkscape-font-specification:Baloo;letter-spacing:0px;word-spacing:0px;fill:#6c6463;fill-opacity:1;stroke:none;stroke-width:0.26458332"
         id="path873" />
      <path
         d="m 75.071097,145.2103 q -0.141111,0.0423 -0.451555,0.0847 -0.296334,0.0423 -0.620889,0.0423 -0.310444,0 -0.564444,-0.0423 -0.239889,-0.0423 -0.409223,-0.16934 -0.169333,-0.127 -0.268111,-0.33866 -0.08467,-0.22578 -0.08467,-0.57856 v -4.23333 q 0,-0.32456 0.112888,-0.55034 0.127,-0.23988 0.352778,-0.42333 0.225778,-0.18344 0.550334,-0.32455 0.338666,-0.15523 0.719666,-0.26812 0.381,-0.11288 0.790222,-0.16933 0.409223,-0.0705 0.818445,-0.0705 0.677333,0 1.072444,0.26811 0.395111,0.254 0.395111,0.84666 0,0.19756 -0.05644,0.39511 -0.05645,0.18345 -0.141111,0.33867 -0.296334,0 -0.606778,0.0282 -0.310444,0.0282 -0.606778,0.0847 -0.296333,0.0564 -0.564444,0.127 -0.254,0.0564 -0.437445,0.14111 z"
         style="font-style:normal;font-variant:normal;font-weight:normal;font-stretch:normal;font-size:14.11111069px;line-height:1.25;font-family:Baloo;-inkscape-font-specification:Baloo;letter-spacing:0px;word-spacing:0px;fill:#6c6463;fill-opacity:1;stroke:none;stroke-width:0.26458332"
         id="path875" />
      <path
         d="m 81.830296,145.45019 q -0.832555,0 -1.552222,-0.22578 -0.705555,-0.23989 -1.241778,-0.70555 -0.522111,-0.46567 -0.832555,-1.17123 -0.296333,-0.70555 -0.296333,-1.651 0,-0.93133 0.296333,-1.59455 0.310444,-0.67734 0.804333,-1.10067 0.493889,-0.43744 1.128889,-0.635 0.635,-0.21167 1.298222,-0.21167 0.747889,0 1.354667,0.22578 0.620889,0.22578 1.058333,0.62089 0.451556,0.39511 0.691445,0.94545 0.254,0.55033 0.254,1.19944 0,0.47978 -0.268112,0.73378 -0.268111,0.254 -0.747888,0.32455 l -3.485445,0.52211 q 0.155222,0.46567 0.635,0.70556 0.479778,0.22578 1.100667,0.22578 0.578555,0 1.086555,-0.14111 0.522111,-0.15523 0.846667,-0.35278 0.225778,0.14111 0.381,0.39511 0.155222,0.254 0.155222,0.53622 0,0.635 -0.592666,0.94545 -0.451556,0.23989 -1.016,0.32455 -0.564445,0.0847 -1.058334,0.0847 z m -0.395111,-5.54567 q -0.338666,0 -0.592666,0.11289 -0.239889,0.11289 -0.395112,0.29633 -0.155222,0.16934 -0.239888,0.39512 -0.07056,0.21166 -0.08467,0.43744 l 2.413,-0.39511 q -0.04233,-0.28222 -0.310445,-0.56445 -0.268111,-0.28222 -0.790222,-0.28222 z"
         style="font-style:normal;font-variant:normal;font-weight:normal;font-stretch:normal;font-size:14.11111069px;line-height:1.25;font-family:Baloo;-inkscape-font-specification:Baloo;letter-spacing:0px;word-spacing:0px;fill:#6c6463;fill-opacity:1;stroke:none;stroke-width:0.26458332"
         id="path877" />
    </g>
  </g>
</svg>
