<?xml version="1.0" encoding="utf-8"?>
<!-- Generator: Adobe Illustrator 16.0.0, SVG Export Plug-In . SVG Version: 6.00 Build 0)  -->
<!DOCTYPE svg PUBLIC "-//W3C//DTD SVG 1.1//EN" "http://www.w3.org/Graphics/SVG/1.1/DTD/svg11.dtd">
<svg version="1.1" id="Layer_1" xmlns="http://www.w3.org/2000/svg" xmlns:xlink="http://www.w3.org/1999/xlink" x="0px" y="0px"
	 width="2500px" height="2500px" viewBox="0 0 2500 2500" enable-background="new 0 0 2500 2500" xml:space="preserve">
<circle fill="#EE4323" cx="1248.398" cy="1250" r="1250"/>
<rect x="274.508" y="210.794" fill="none" width="1950.985" height="1951"/>
<path fill="#FFFFFF" d="M1004.753,2012.075c-99.042-42.812-191.72-151.618-191.94-262.949
	c-0.27-121.38,76.653-224.433,172.326-292.157c-11.502,43.456-17.775,83.203,10.72,122.073
	c26.489,36.137,72.884,53.697,116.691,44.167c102.36-22.409,107.057-134.937,46.373-200.496
	c-59.998-64.923-118.04-138.257-95.202-232.408c11.433-47.196,40.412-91.405,77.123-123.006
	c-28.218,74.157,51.969,147.289,104.803,183.717c91.647,63.201,192.202,110.965,276.47,185.052
	c88.64,77.863,154.095,183.143,140.879,305.249c-14.324,132.35-119.493,224.398-237.456,270.869
	c249.275-55.019,506.844-248.488,512.121-524.944c4.371-227.442-151.652-402.479-344.929-502.689l-10.098-5.512
	c5.305,12.871,7.041,23.819,6.841,33.619c1.729-7.228,2.904-14.655,3.236-22.318c-0.047,9.104-1.236,18.166-3.541,26.974
	l0.305-4.655c-2.87,12.076-7.704,23.597-14.31,34.104l2.835-3.05c-38.558,63.955-142.944,77.843-194.513,11.62
	c-82.898-106.524,1.735-221.376,13.576-334.18c14.821-141.375-73.838-278.622-183.765-360.752
	c60.545,97.941-19.22,227.518-83.037,299.958c-61.879,70.222-137.135,128.851-205.448,192.653
	c-73.381,68.527-143.927,140.711-204.244,221.141c-120.633,160.983-194.485,363.45-140.213,564.284
	c54.237,200.697,228.085,328.454,424.402,373.632L1004.753,2012.075z"/>
</svg>
